sentiment,text
0,re factories in s early s i used to work on their big old computers at am so walked through dim bldg and the aisles of machines just disappeared into a dot now it s a cummings park not sure if locals have old interior pix
1,as depicted in film nestle baby formula seems to be safe when taken with clean drinking water problem arises only where people don t have clean water i m confused since diarrhea in babies can be due to unsafe water also i think i need to know more before commenting on
1,whe i got sick last time before nofap it took me about weeks to gain back shape and get rid of the flu with tons of medications but now it s took me just three days to feel better and with no medications nofap nosmut noporn smut pic gif all are porn
0,down by the bank where the hanky pank where the bull frogs jump from bank to bank saying eep opp eep opp opp skiddle diddle keerplop i pledge allegiance to the flag michael jackson makes me gag up now the flu now we re drinkin mountain dew mountain dew fell off the mountain
1,miss
1,pov
1,the flu is an inconvenience for healthy adults but it can be fatal for babies seniors and those with compromised immune systems i was a baby that almost died of the flu it was touch and go for a while but i pulled through too many kids don t get vaccinated
1,sir your son is presenting with extreme nausea diarrhea and a slight fever the most common side effects of the chemo he just finished our recommendation is to run hours of unnecessary tests overnight and then land on sleep and fluid replacement in the morning that ok
0,eu quero mt ir pro baile do gomeeeeeees dj guuga vai ta la imagina ele l esse o dj guuga tem meu respeito uh mlk brabo as mina t o dando p ele ainda t o pedindo obrigadoo e eu rebolando at o ch o quero
1,as an adult cancer patient thank you for this i m still stunned at the number of grown ups i know that keep putting off getting a flu shot despite my asking for them a flu is a day or two in bed for me it s hospitalization and all the pain and costs that come with it
1,livebolanet barcelona xi vsatletico ter stegen semedo pique umtiti alba vidal busquets arthur sergi roberto messi suarez barcelona subs dembele rafinha cillessen malcom lenglet munir alena
1,
0,lots of local businesses get reported as having tainted meat and then people don t go there one such restaurant closed nearby me a while ago what regulations did is to give businesses a headache because no one can ever meet them all
0,you re missing the good stuff not having the tv feed all game just making excuses for urban s reactions it s the only way he can avoid massive headaches he has to act like that or he will die now you know
0,japa rebolando gostosa dan ccedil ando funk sudanese x sex gp brasileirinhas sexo delicias e travessura carton japan sex pic
1,
0,she sighs slowly taking her hand away sigyn turns her back to him looking at her burned fingers was it right to stay here with him she noticed a light pain in her head oh nice now she start to get a headache as well she takes a deep breath the past is the past we have
0,health org clearly because the millions of people who get flu shots every year are now dead such morons
1,me mullins adonai iamanita d cann following all patriots
1,
1,headache gamer
1,just in time for flu season and made this video explaining the virus and the work being done to defeat it once and for all
1,thanks i know how you feel i ve got sooo much framing still to do too i m planning to take the art to car shows next year and display in a gazebo that s going to be a logistical headache but fun if i can sort it out
0,oh god not gonna lie i ve had a stinking headache all day apart from that i ve just been tired
1,yah know as horrifying as this is it is pretty legit you wake up from death in your own poop blood vomit and urine and are cold and vulnerable and having a headache and emotional strain it s literally like being a baby again
0,they didn t deceive anyone they just had incorrect information the same information everyone else had might i add
0,chase stress nou pwoblem lavi a listen to barikad crew terapi by plezikanaval np on soundcloud
1,backfit s resident naturopath dr morton hard at work acupuncture has many potential benefits it can reduce stress relieve headaches and decrease muscle and joint pain
0,they are gonna taste like stale froze fish i just know it we are gonna spend all this time frying them and they are gonna taste horrible
1,norris i got hit with a flu this thanksgiving and her memoir was the unexpected gift one other clearly i am very excited about your interview she said she s got a lot of immigrants on staff i didn t expect that why is that important to her looking forward to listening
1,
1,so mady had the flu for seconds so i told my mom bc she asked when i was going over then mady texted me saying she doesn t rlly have the flu but i can t go over anymore and i m upset bc i see her like twice a year
0,when trash women think they the prize it is hilarious like fam you are worthless you bring nothin to a nigga but a headache they be out here actin like they woman of the year shut up lmaoooo
0,the science is clear dirty farm water is making us sick this story originally appeared on reveal and is part of the climate desk collaboration william whitt suffered violent diarrhea for days but once he began vomiting blood he knew it was time to
1,adulthood is battling a headache in bed and watching the sisterhood of the travelling pants on a saturday night wild
1,the worst part to me is the incredibly short memories of everyone i don t wish harm to meyer those headaches at all but did we all forget that he started the season on suspension why osu players mad props go kids meyer go away
0,at queria ir pra formatura do bomja bonitinha de salto mas vai ter que ser no vans mesmo pra poder rebolar a bunda a noite toda sem morrer de dor
1,were capable of feeling them their deepest fears two nightmares she had on that ship two nightmares and a headache from that cousin of theirs him being turned into a dragon mellowed him out taught him a few things about gratitude but she feared losing him more importantly
1,just in time for flu season and made this video explaining the virus and the work being done to defeat it once and for all
1,hey guys i ahte to but stream is being postponed tonight been feeling sick since this morning and fighting a helluva headache at the moment gonna try and make up for it tomorrow
1,i like that he ain t doing all that metal rock screaming when she s featured on one of his songs less of a headache
1,punim no i m not flu vaccine is toxic mutated shit no one should go near much less inject into their body
1,eaux i m mainly going to make everyone get one solely because if one of us does come down with the flu and god forbid the newest kid got sick i don t want that guilt i ve always just skipped it prior to this year
0,born late s early s played oregon trail in school it s a near universal in joke to tease about the modes of death you have died of measles snakebite exhaustion typhoid cholera starvation drowning gunshot wound
0,i feel terrible for you people that don t know la technique specially if you die from the flu
0,the biggest headache for creating free reports and ebooks is surely writing and formatting well now you never have to worry about any of that make awesome ebooks n just steps
0,face mask season it s the holiday season as well as cold and flu season which is a time that we gather up with our family and friends to make new memories for lupies we must be super
0,as pessoas tem o direito de mudar de opini o natural o que bizarro esse mal car ter do cb querer criticar alguem quando foi ele o maior eleitor de peter siemsen
0,a sede elefante branco para incompetentes e corruptos
1,na m o de bons gestores o maior patrim nio tur stico e hist rico entre todos os clubes do brasil
1,mas aquele neg cio fil mignon na m o de anta vira cox o duro
1,
1,camargo sim a tend ncia essa os times que sobem tem que rebolar muito pra ficar na s rie a s rie a dif cil at pra time grande imagine pra esses times menores
1,se vasco flu e sport perderem e os outros ganharem muito dif cil acontecer na ultima rodada vasco e ceara jogam por um empate salvando os dois
1,the new domain name headacheresearch com has been listed for sale at buy it before its gone click here headache chere research
1,thanks kitten but im mad at him again bc the food he bought me gave me diarrhea on a level i aint had to face since i got typhoid in the villages
1,
1,whitt suffered violent diarrhea for days but once he began vomiting blood
1,six months before he was sickened trump s fda shelved the water testing rules that could have prevented his infection foodsafety
0,point taken but i d say the risk is still there for the west tb and measles have been reported as making a comeback possibly from migrant populations entering the u s without health examinations
0,filppula has been very good really all centers barzal nelson filppula cizikas have had strong seasons thus far good to see fritz chip in today at center as well
1,i think it s happening again no sleep no appetite no energy and now headaches if i get a nose bleed or a rash again then i m definitely not ready to go back to school
0,hello how are you doing today it s a headache free night and it s not even and i m already in bed so it s a win how s yours agent emoticon i just
1,that sounds like a migraine i get those often i would use migraine headache medicine if you have it and then avoid screens or take a nap
0,my husband and i had the flu you have we both had tamiflu he was lucky he got his right away he got way less sick but it still shortened my illness don t let anyone try to shame you for taking care of yourself
0,
1,my headache started at about second overtime turned to a migraine by the th would have been on the floor if we didn t win in the th btholsu gigem
1,eu baixei o futebolando e minha ft de perfil to cm camisa do bar a o cara me vem no chat espero que me pe a em namoro e me leve p camp nou
1,
1,rt unicefindia poonam beams after getting her month old son vaccinated to fightmeaslesrubella at a missionindradhanush camp in bihar
1,
1,everychildalive
1,for flu season try ishii throat chops you won t feel the pain from the flu just the pain from being smacked around by a human tank njwtl
1,panini prime signatures s cci casey cizikas new york islanders auto card end date sunday nov pst buy it now for only buy it now add to watch list sports cards sportstradingcards
1,eu fico vendo pessoas sabem rebolar e assim eu quase bato palma pq pra mim imposs vel mexer a bunda de um jeito minimamente bonito e ritmado
1,just in time for flu season and made this video explaining the virus and the work being done to defeat it once and for all
0,
1,graham souza cwn if mumzy biker truther moo marymason measles doesn t kill huh million pr year died globally before the vaccine arrived for this disease which doesn t kill and before you say those were in poor countries in it kills in western countries
0,tahun yesung menggantikan jonghyun untuk bernyanyi lagu ring ding dong dikarenakan jonghyun sedang terkena wabah flu babi burung saat itu
0,there are three main reasons why you begin to experience a headache after going low carb dehydration electrolyte imbalances and carbohydrate or sugar withdrawal keto ketogenicdiet ketosis ketoflu headache
0,after years of stress and headaches for businesses and people trying to work out how the eventual deal was going to affect them and how to plan for the future it s still not clear don t think it s what we really wanted brexitchaos
1,sometimes death seems better than the migraine in my head let it be said what the headache represents it s me defending in suspense it s me suspended in a defenseless test
1,o honestly i don t believe in those things i see what it has done to my sister not to be vaccinated we know that some don t work like for the flu cause it changes every year we can t find the right one but for others i won t take te risk to kill my children if i have kids one day
1,i ve had it a few weeks back and am only just starting to feel properly like myself lizzie s recovery seems far too quick to be flu to me thearchers
0,
0,na dagen gevangenis zijn straatmuzikanten weer vrij ze krijgen maand voorwaardelijk affaire zorgde voor ophef free lfen die misschien tot hun vrijheid heeft geleid
1,tw alcohol it s still weird to think that i was drunk last night but i didn t wake up with a headache and i wasn t sick weird flex but okay
1,welcome thanks for following god bless divids
1,one of emery s and arsenal s strenths this season is the unpredictability and flexibility of line ups it will give coaches and teams plenty of headaches to prepare for us
0,em na final do carioca ele fez essa defesa a eu n o lembro se foi algum jogador do flu ou nosso que mandou pro gol mas foi incr vel acho que foi no come o do jogo vale postar
1,what fucking world are you living in take the breitbart fox firehose out of your mouth and go back to sucking sean hannity s cock or whatever else turns you on that s not diarrhea spewing out of your mouth from your shit for brains
0,i would never wish anyone to get hurt but at least can we wish a case of explosive diarrhea on aaron rodgers tonight lol
1,i might be off my face on flu meds and severely sleep deprived but why are angels depicted often as having the splayed wingtips that birds of prey have
1,
0,time released in the fish tank i can smell the flu epidemic a few tickets from january back to the rhythm they concerned about your health we push the plate away and cough they feed you as believers you chew over what they say food for thought pearlis bang bang
1,hello i m finally recovering from the flu which is probably because i had my first meal in days yesterday even though my tastebuds are currently fucked up and it tasted like shit but your healthy hoe is slowly rising back from the dead
1,eyeflu sigues manipulando no es por criticar no puedes desear la muerte de nadie y menos con publicidad delito de odio
0,martin la legislatura porte a esta compuesta por personas de diferentes partidos guard el gorrito de aluminio por favor
0,there are confirmed cases now and an ocean resident with the measles may have exposed people in passaic county officials said
0,the top immune enhancers you need this season lifechangingwellness immunesystem immune colds flu influenza healthybody healthyliving guthealth flushot
0,i don t even get headaches like that but seem like every time i m around people that roll up in em i ll have a headache before the end of the night got me thinking i need to start passing them l s up
0,quando eu era pequena catava ate os pedacinho de cebola e coentro da comida e agora acabei de comer um prato de chuchu cenoura repolho e quiabo eu mudei da agua pro vinho bicho
0,just in time for flu season and made this video explaining the virus and the work being done to defeat it once and for all
1,pastorrlog pode ser domingodorebolado e por falar nisso que rebolado top
0,who is going to sound the alarm drc heading nervously into dec national elections is loathe to put a spotlight on the burgeoning ebola outbreak agree entirely with we are on the edge a frightening moment
1,cdc recommends eating nutritious foods to prevent the flu as part of their npi for flu prevention zinc as oz points out is one way to help prevent flu pork is a great source of zinc
0,i m boutta get off twitter cause y all keep talking about the independence things and making it deeper than what it is and now i have a headache
0,
0,fyi some clinics have flu vaccines without egg product in them for people who are allergic to egg products so if you just say you re allergic you may be able to get one
0,batches would be the best way then people would gravitate to stuff they like that is similar the smart vendors are doing away with the strains they carry and sinplyfiying it cheaper to do proper cgmp packaging that way and less headaches for customers
1,np web drop log on radio reggae reggaemusic kenya tune in lazmaibambe
1,
1,there s so many layers of transphobia hotep ism misogyny etc involved in this dwight howard stuff it s giving me a headache
1,
1,odinson what s it matter she s hitting you with facts
1,muzikantenbank portland row zoekt bassist facebookportlandrow eigen nrs gedreven en passie om er voor te gaan bassist pearl grunge eigennrs alkmaar
0,butdeadly when he said it had a kick it wasn t an exaggeration an incredible amount of force could be felt onto his stomach pain should be felt in every nerve of his body then came an immediate yet powerful headache if he didn t pass out it would be nothing short of incredible
0,excuses are as habitual as verbal diarrhea both stink are continual and drain all energy find a way to make a change and get the things done you need to do
1,i d say her survival instincts kicked in flu shot is a joke manipulated rrr shows improvment over no vaxx studies have shown susceptibility to pandemic strains after vaccination pharma corporations routinely lie about the safety efficacy of their drugs incl vaccines
1,
0,a you are if you re just bothering someone at that point your being obnoxious for no reason if you dont wanna shut up then leave the area or tell them to go somewhere else you dont get to give out headaches bud
1,
1,excellent study thank you it underscores the important message that measles is not just a simple rash illness but an immunologically impactful virus with lasting and potentially fatal consequences that is far better prevented
1,por favor rt para que se haga justicia con esta mascota dlp pimentel es
0,en pokemon rojo cuando lanzaba la pokebola mantenia presionado el bot n cre a que habr a mas posibilidades de capturarlos
0,
0,
1,
0,no primeiro turno o inter venceu o fluminense por a no maracan com dois gols de nico l pez e um de jonatan alvez intxflu brasileir o
1,penha nossa rennan mas o que beijo gay tem a ver com isso logo vc q ta organizando uma parada lgbt na gaiola tweettando uma coisa dessa s o comparativos totalmente diferentes decepcionei agora
0,ebola patient arrives congo migrant explosive vomiting blood high fever
1,yes this is common and understandable since they share a lot of symptoms but once you ve had the flu actual influenza then you ll never complain about having a cold ever again
0,ebooks i m taking care of myself it s just annoying that my reflexes are a bit dulled that s all as well as this annoying headache what about you are you taking care of yourself or will i have to do it for you again
1,you can get a mild reaction to the flu shot it happen to me this year i felt really bad for a couple of days after getting mine they tell you that may happen also it takes several weeks for the shot to protect you so you can get the flu before then
0,we have an outbreak of e coli o h which makes you vomit blood have bloody diarrhea and even pee blood as you lose your kidneys it s all because trump overturned obama era rules to test our farm water farmers save million so that we pay million in medical costs
1,cuz of her comment dear since his acc was not hacked and the timing was exactly after the comment came out there cant be any other reason he wanted to avoid headaches caused by her comments
0,
1,esse monumento parou varias vezes na minha frente nao sei descrever o quao maravilhoso foi ter essa mulher rebolando bem na minha cara varias vezes
1,you want to go back jimin asks yoongi shakes his head let s go home then i ll call jin
1,yoongi sighs sits up and rubs his forehead with his fingers i have a terrible headache now
1,i use cbd oil in a lotion type form and it helps wonderfully with headaches and cramps and other types of physical pain as well good luck
0,
1,
1,
0,parab ns ao marcelo oliveira que dessa vez ir rebaixar o flu com seu p ssimo trabalho e aos jogadores que desanimaram por falta de pagamento
1,nurses were the main means of treating spanishflu victims since good nursing care was then the only effective treatment
1,according to john hopkins medical error is the third largest cause of death in the us with approx a quarter of a million deaths each year compared to the approx million deaths per year caused by murder in comparison the flu causes approx million deaths per year
1,siqueira ele poupou o time pq se achava assegurado e agora quem vai pagar essa conta ele vai embora mas o flu fica ou marcelo oliveira sai ou o flu cai
0,n o sei se est o fazendo corpo mole ou s o med ocres mesmo acho que s o as op es eu tiraria todo o time colocando o sub para jogar a ltima partida se para cair pelo menos vamos ter dignidade
1,hard to believe i ve been days headache migraine free i honestly think starting my meds back up has something to do with it indiana indianagirl migrainebuddy migrainefree happy
1,
1,campeonato surpreendendo flu c chances reais de queda inter garantido no g e o da falando do corinthians sinceramente acompanho o canal desde e o tanto que ja foram melhores n o t escrito
0,blood pressure dropped and now i get flu swabs and chest x rays on top of everything else i m a bunny suddenly this is how i keep from having a panic attack hospital induced ptsd makes trips like this extra fun
1,
0,
1,elinn thecashier abigail calum
1,a week of migraines and bad headaches meant i fell behind on a few things the christmas pudding will pud in a few days and i hope to have my fruitcakes done tomorrow i did start on
1,
0,tu zika val uma pessoa que tem tudo pra crescer na vida sem palavras filhote tu dhr nmrl isso mt bom de se ler eu n o sei quem foi mas juro que tu especial pra mim mano obrigado mesmo
0,
0,i get terrible ocular migraines from focusing on small screens and i can t play many games or have a phone because of it even if i could bear the terrible headaches and visual disturbances i m too paranoid i d eventually go blind to keep playing
0,tens planos para as tuas pr ximas f rias hunrummm curtir muita festa pique american pie e voltar a rebolar ao s de drake
1,i started hearing it a few weeks ago i don t think it was publicized after yesterday i bet it s khaki pants that has the headache
1,i made a tweet about why i didn t listen to guillotine no more and didn t even tag any of them but had bones in my mentions talking shit about being disappointed that people liked my tweet deleted it to spare myself the headache
1,disease disease disease no one mentions the damn threat which may end thousands of us immigrants in the asian flu from china killed million worldwide legal immig has health safeguards like the ebola bullet we recently dodged now a typhus epidemic start in ca
1,agora que eu li na tl que fla x cap no mesmo dia tb no rio complicado sj uma boa mas duvido muito o vasco liberar flu vai acabar jogando no engenh o olha s
1,iroc exactly i started getting the flu shot about years ago and have not gotten the flu since however my wife doesn t get one and gets sick
0,one box at the apothecary used to contain bottles of coca cola the drinks were first sold in the late s as medicine believed to cure conditions like tiredness and headaches old medicines preserved in us apothecary museum
1,i have cared for polio survivors years later they still have disabilities the chickenpox virus can result in shingles rubella causes birth defects and measles will just outright kill you tetanus you re gonna die with your body in spasm
1,that it s a unique film from a unique mind and it deserves to be commended for that but nothing but trouble makes me smile at its creativity bad boys ii gives me a headache
1,took a plump shit hoping i make it to the restroom next time the manager has asked me to leave but not before i pay for this burrito chipotle burrito concussiondiarrhea thirdnipple clunge clungemagnet skechers
1,sana news footage of some of the daily headaches trying to travel around the city of damadcus syria syrianarmy via
1,
1,uganda wants to be ready if ebola shows up in health centers near its border with drc this is the first time an ebola vaccine has been used to prepare in this way
1,no matter what diarrhea of lies and racist fascist excuses comes out of your mouth you are responsible for this see her in your dreams sinner
1,apparently i needed more than a week long stress headache and stress breakout because to top it all off im now stress losing my hair
1,akd a good idea best regards
0,for most children the flu vaccine is not an injection just a quick nasal spray find out more by talking to your gp today fluvaccine
1,unicos rappers q eu respeito veste a cal a saint tropez que deixa o umbiguinho de fora entra na roda e rebola rebolando sem parar gera gera gera o coca cola molha a cal a toda hora de tanto se esfregar
0,just in time for flu season and made this video explaining the virus and the work being done to defeat it once and for all
1,i had that with charlie s angels having the flu for a week in th grade taught me about diva worship a more valuable skill than anything i learned in the classroom that year
1,i ve had a head splitting headache all day but i m excited for toomorrpw cause we re trying a tk real business schedule where we actually get shit done
0,kimakima excellent discours tr s cher camarade
1,absolute worst feeling of my life i went absolutely blind my face was literally numb and on fire i hate panic attacks especially when i have the flu at the same time
1,demeler eld n sevgili tadinda mutlu son masaj hizmeti sultangazibelediyesi sultangazimasaj sultangazieskort sultangaziescort sultangazibayan sultangazieskortbayan sultangazikasex sultangazimutluson masaj kese k p k
1,this is totally going viral like the flu goes viral in the winter happy not to have memphis back at mufc anytime soon
0,payroll headaches causing you stress get an easy to use payroll system for your mac download accountedge plus for a free day trial payroll accounting mac software
1,you do know that those recently vaccinated with live vaccines such as the measles or the nasal flu mist shed those viruses which can attack the immune compromised
0,sales
1,he was libya s headache with his stiff policies and actions the problem with libya was that libyans never prepared for a post gaddafi era
1,ako pimem ljubim mi se
1,ali opet
0,hi all i ve not been going on fm as much as i d like recently due to debilitating headaches had a ct and lumbar puncture but thankfully were negative i ve had to change my glasses for varifocals to see if that helps got a stressful new job too
1,we were new parents me for a second time him for the first time i had a rough pregnancy and due to the flu and cold season we had almost no help from family no one wanted to get the baby sick and then she got sick ugh it was hard times bc she had rsv
0,these champions aren t afraid to fightmeaslesrubella as the mrcampaign launched in uttarpradesh today
1,last month reported about measles cases in the european region since the beginning of which is more than double the cases reported for africa in the same period vaccineswork globalhealth
1,went to two events this weekend ghost note at ronnies were incredible gig at earth was awful braved flu for poor sound lack of vivacity it s such a bad venue downstairs wish it was made transparent before booking i adore makaya but left before his set
1,this two bit chump just slathers himself in ridiculousness instant vomiting diarrhea kinda like what fly s out of the president s yap
1,a winter storm that gave travelers a headache around thanksgiving will bring more high winds and snow today as it pushes northeast from the midwest toward the lower great lakes
1,
1,vaccines are fraudulent they aren t safe or effective listen to this md talk about what happened when she discovered that the flu shot was shutting healthy patient s kidneys down
1,it s the estrogen it protects women and helps you recover a cold or the flu will have us men on our death beds because we don t have that protection
0,
1,me tries to watch bed peace to soothe my headache yoko seconds in aaaaaaaaaaaaaaaaaaaaaahhhhhhhhhhhhhhhhhhhhhhhhhhhhhhhhhhhhhhhhhhhhhhhhhhhhh
0,
0,
1,just in time for flu season and made this video explaining the virus and the work being done to defeat it once and for all
1,i have so many orders i have to drop off to zari lol i swear i m getting back on my grind tomorrow i had to relax this weekend to get my mind right and to shake that flu off
1,okay let me be transparent i just dont get the flu shot i don t have any moral leaning i just choose not to i did get one in because my father forced me now keep arguing so i have something to laugh at
1,q a measles and mmr bbc news mmr introduced in the uk in more cases of autism in s coincidence i think not
0,if you are suffering from back pain neck pain headaches sports injuries whiplash sciatica or disc problems we want to help call to schedule an appointment or go to our website
0,rt when paper billionaire promoters play victim it induces a very special form of headache how much was paid to create and support this garbage
0,
0,i watched a movie a stand up comedy show and danced w just when i managed to beat this headache i started feeling chest pain after a while hip hip hooray congratulations
1,selain masalah produktiviti dan flow dlm company perkara yg aku bimbang masih mencari jwpn utk aduan pekerja yg sejak bekerja ngan aku a k a company adalah berat badan dan saiz meningkat aduh bahagia sgt smp makan lebih ke mcmne ke kerja fizikal tak cukup
1,holiday travelers in us upper midwest scrambled sunday to make it home ahead of a major winter storm bringing travel headaches to a wide swath of the region including chicago s o hare and midway airports travelalert weather midwest flightdelays ohare airports
1,ughh i caught the flu and i threw up abt times this morning and i just woke up from a nap and i feel extremely weak and i have the worst back pain ugggghhh i wanna die
1,
1,np judy boucher trying to get over you log on radio reggae reggaemusic kenya tune in lazmaibambe
1,is a probiotic effective for treatment of pediatric diarrhea no according to two large multicenter us canada based rcts of lactobacillus published in congrats to freedman schnadower and others
1,soundoffchs doctors recommend it but about one in three parents say they re not going to vaccinate their children against the flu this year what do you think my mom is
0,don t let headaches cause you anymore stress be sure to read our blog post on how to handle your stress related headaches don t forget to like and share with someone else who could use some headache tips
1,zika sob efeitos de uma droga chamada amor
1,i was simplifying and i said what strain would be most prevalent the point is you can get the flu shot and still get the flu which is why ppl don t like to get the flu shot i get it every year i m pro vaccination we re on the same team
1,conspiracy theories on artificial diseases e g hiv was transferred from monkeys to humans in the s touch on other outbrakes such as ebola would be very interesting sdconspiracytheories
1,yeah that was my question she said she s a general neurologist as if that s an excuse but the clinic has people who are experts in spine leak headaches so i should see them of course moving around makes it worse so going to my gp tomorrow to go elsewhere again pain
0,i got shoe game gotta cop my self another plastic ass two chains think i need a flu shot thot thot thot thot got yo b tch in the morning lookin like a chef chef oregano in my genetics i came up b tch flash flood every time that i m hungover cause my head hurts and
1,it s not like a long sick thing i think i was just having bad headaches and allergies were just kicking my ass xdso took medicine and i knocked the heck out
0,dit is exact de reden waarom ik esns tegenwoordig oversla het is een festival van marketing geworden er is altijd wel iets te ontdekken maar mijn ergernis was op gegeven moment groter dan het muzikale plezier en dat na edities presentie
1,recovering from flu workout update squat capacity is down a bit and my quads felt like bursting so i might have skipped a set pull up capacity is almost doubled much like my dips
0,shellem wingflyer fahringer chris herrm oandbp hextall s resistance to fire dave hakstol ian laperriere gord murphy forced them to fire him first he has rebuilt this team stockpile the talent got rid of the cap headache but his failure to hold accountability to the coaching staff was his downfall now firehakstol
0,flu ben e jamal qasch cktchi n n budu
1,birthday wasn t quite what id hoped for but i ll take what it is was i still have a really bad headache and im about to go into work for hell monday so im just dead
0,birthday wasn t quite what id hoped for but i ll take what it is was i still have a really bad headache and im about to go into work for hell monday so im just dead
0,atalente ata flu diren ke i reniancakayd ntutar
0,hook me up with the my refund for willam rhea in leeds your website is giving me a headache and thinks i want to buy tickets to a show u guys cancelled
1,atalente ata flu diren ke i reniancakayd ntutar
1,seriously i almost feel as if this mirror is taunting me by showing me what i could be knowing damn well i m not
1,mka cm esra devrim kizi flu ke i reniancakayd ntutar
0,trying to throw an excellent in pokemon go is really giving me a headache i almost want to take a break from the game it s making me so upset
0,demilade akanke egret kfb
1,s mostra a cabacice do nosso presidente namoral eu odeio essa cara sempre chupou a pica desse bandeira de melo fazia amizadezinha e os crl agr vai tomar no cu seu filho da puta s mostra o qu o lixo vc eh seu imbecil
1,blizzard looks nice this storm brought powerful winds and heavy snow to the region and with it a variety of headaches for homeowners if you need help we can help with of arlington heights prospect heights is standing by
1,
1,
1,would you please add a warning to your show about the stobe effect flashing lights i react badly to them and spent the rest of the evening with a blinding headache
1,
1,one of the best ways to convince people of the benefits of vaccinations is to show them pictures of a child with measles a new study found winchester
1,
1,i e i have a headache and there was a startling and offensive dearth of pies at dinner last thursday they could ve kept that turkey i don t even care insufficient pie no
1,a supreme court vote is just one of heidi heitkamp s headaches a supreme court vote is just one of heidi heitkamp s headaches in north dakota senator heidi heitkamp is grappling with a supreme court pick a trade war a hostile president trump and a f
1,feed ebola alert united states congo migrant vomiting blood migrant from congo arrived the eagle pass port of entry no showing signs of ebola explosive vomiting blood
1,we only see irapadakwara and other such of names six months to election after election fiiamu you people disappear into thin air don t worry is enough to handle your headache
1,idk why people get shitty ass cars that are gonna bring them headaches afterwards yeah you can fix it or whatever but isn t it better to just buy a whole new car then waste so muc money on car parts
0,boy diagnosed with afm after his flu shot but his case went uncounted as have others doctors are perfectly aware of the fact that the flu shot can cause afm and yet still continue to recommend that toddlers get it via
1,
1,ph yuste pancho bello papa garsan de avila
0,
1,hello my apologies for my absence i ve had a horrible headache along with cramps all day so i ve been resting i ll get to replies in a bit
1,wood betony helps with falling sickness and headaches anti anoretic helps sour belchings cramps convulsions bruises afterbirth and gout and kills worms medicalastrology
1,since it happens if it happens at all far more rarely than for example dying from measles or menengitis the question is null and fucking offensive
1,finally home after a long ass drive in the wind and rain someone is really happy i m back and went right to work trying to make my headache go away i miss my family
0,finally had enough holiday cheer to do something holiday related so i put together all of our christmas cards now i have a headache because i am allergic to latex and my husband wasn t home to lick the envelopes for me
1,will es capaz de sentir claramente la sangre arrebolarse en sus mejillas ante las palabras del otro chico abre la boca la vuelve a cerrar bruno es incre ble y a veces se le escapa c mo puede pensar bien de alguien como bueno will no ha sido para tanto cualquiera con
0,i have a headcanon that matt would wear this headache inducing outfits too many prints clashing neons just bright red everything etc purposefully just to mess with people
1,easy to take care of yourself with your myoball and posturemedic rehab chiropractor chiropractic therapy running muscle fowardhead headache sitting sports foam foamroller pain lodosis scoliosis braces posture injury muscle
1,the death of john allen chau is as senseless as the deaths of the couple killed by isis in tajikistan you just don t go there no way no how the risk of a deadly epidemic of flu measles or other outside disease is very real and increases with every contact get your flu shot doj report from vaccine court reveals flu shot is most dangerous vaccine in u s vaxxed vaccineswork pregnant baby expecting safevax thinkbabies x flu x amg
1,x chape x spfc
0,x sport x santos
0,x cear x vasco
1,estes s o meus palpites o vasco se salva com derrota e eu tenho um avc
1,
1,
1,
1,the democratic republic of congo has kicked off the world s first multidrug randomized control trial to evaluate the effectiveness and safety of experimental drugs used to treat ebola patients
1,segura a galera rn amanh vai pegar fogo com o venham participar e prestigiar crf cesar
1,bissetriz so ne
0,if shipping this holiday season use anybody but they suck at delivering packages save yourself the headaches and use any body else to ship your packages
0,da pra cair os dois ainda falou besteira irm o se o sport ganhar do santos vai a passa o vasco chape ganhando vai passa o vasco e o flu am rica ganhando vai a passa o vasco e o flu vasco iria pra e o flu caindo os dois
0,es que la concha de la lora a todxs nos pasa porque es algo muy rompebolas pero si no llegas ahora llegar s despu s boludo nadie te apura hacelo a tu tiempo y modo y vas a ver como te cambia todo mentendes
0,one s a headache and a laugh until you cry bestie and the other wants to be a korean girl
0,love you both so much
1,raw well i used to love crazy pants i never forgave seth now that dean is snapping it s late but ok i see corbin is the of raw rabies ebola distemper e coli you forgot bubonic getting a shot in the ass live is a st
1,gslv yes you have repeatedly you keep saying vaccines don t work even though they do and all evidence says they do you lied about flu vaccine safety based on vcip rather than actual scientific evidence
0,duvido se eu fizer um rebolado que nem o teu se eu n o fico de cadeira de roda por tr s semanas ahahahah ex coles parceira de fextasss sabe que tamo a p tudo ainda mais se for pra bebe umas e passa vergonha ahahaha lhe adoruuu fotinha masterrr no melhor dia
0,ebola beni la maladie virus ebola tue le de pers atteintes et gu rit le cumul des cas est de dont confirm s et probables au total il y a eu d c s confirm s et probables et personnes gu ries rdc lections
1,dozed off for an hour an woke up with a headache took some meds drank water and was just laying here waiting for my headache to go away so i can go back to sleep headache is almost gone and now i m pretty much awake ready to do shit
1,my peace is a priority if you re giving me a headache and i already made you aware then i m cutting you off cold turkey even blood can get their number blocked
0,not worth the headache but this sour ugly and cowardly attitude can eat dirt for all i care waste on a easy bet they wouldn t say anything close to this in person so he can take his highbrow cocky attitude and piss off
1,in two of the worse flu seasons in recent history the national baseline of percentage visits for flu like illness was breached very early of all the other terrible things the flu can and does do you may recall that qi gdp in th
1,flash flash be aware with swine flu again new swinflu cases found in hyderabad prevention is better than cure get swine flu vaccine at home health at homes book online now no booking charges contact health at homes call
1,i won t be able to finish tonight s espressoyourself i m calling it a night cause i have a headache i was on my phone all day goodnight everyone thank you again for the shoutout i m gonna get you back for that
0,side note got some ivig antibodies in me today and got my flu shot and since i got ivig today i won t need to start vaccines for a little while longer
1,before i or any of my loved ones ever get another vaccine i want to know all of the ingredients here are the various ingredients in flu vaccines
0,m people globally lack access to safe water supply sources with m million people in africa alone affected everyday especially those from rural and slum the health implication are staggering m people die every year due to water borne diarrheal diseases water
1,superstition come on bro it s just a coincidence it s like my babalaz headache getting healed after a prayer session
1,annual traditions are great they give us something to look forward to another tradition to add to your list is an annual landlord inspection okay this isn t nearly as exciting as a holiday party but it can end up saving you money and headaches in the new year
0,
0,mystyleisrastyle lazmaibambe rastyleke np cornell campbell i heart is clean log on rastyle radio muzikalsheriff reggaedesciples reggae reggaemusic kenya tune in lazmaibambe
1,it s am and i haven t had one wink of sleep n have only just realised it s because i ve been dosing up on cold n flu tablets packed with caffeine
1,
1,no such thing as a crypto expert these so called experts known as much about any of this shit as my grandma all mouth diarrhea from these experts
1,but anyways i ended up back on pain meds for pain control until i could find a doctor to help me this infection has caused permanent damage and even after treatment the headaches won t stop plus i have additional pain in my upper back and neck due to muscle issues which botox
0,just in time for flu season and made this video explaining the virus and the work being done to defeat it once and for all
1,junoon nehal asadayaz rao fatima r w e n allah thori garmi idar baj day lol
0,on the sofa with a hacking cough a bucket and a very large bump everything is going swimmingly monthspregnant flu sickness cough lovinglife
0,thank you to everyone for coming by my cold flu ridden twitch stream ya ll gave me the ability to pull through to am and i love ya s for it raided randomly since randomness is awesome see ya next stream wastelandmafia raid retweet twitchaffilate
1,
0,i also feel absolutely awful post con flu has hit me hard and honestly shouldn t be at work but i don t get paid sick leave so i m here to infect everyone instead
1,every flu season is different and influenza infection can affect people differently but millions of people get the flu every year hundreds of thousands of people are hospitalized and thousands or tens of thousands of people die from flu related causes every year flushots
1,gibblets just like labour were doing well in polls before the election you don t need many votes to move to the lib dems green snp and plaid to cause labour a headache
1,chelmsford council rt chelmshealth winter needn t be the unhealthiest time of year although colds and flu start to circulate in the community
0,this headache is fucking out of this world man i would rather have someone else stretch my tits around my fucking neck and slap me silly than deal with this horse shit of a headache
1,flu jabs in mk today come and see me at shipley court neath hill pm queensway pm campbell centre pm and eaglestone hc pm
0,dominguez just got back from the flu jab cor blimey it s cold out there jen xxx
1,deadline to return flu nasal spray consent forms for years reception to year is wednesday th november you need to return the form even if you do not consent to your child taking part thanks if you have already returned the form to the office
1,er worden bekende en nieuwe kerstliederen ten gehore gebracht het wordt een muzikaal boeiende avond met muziekstukken die duidelijke maken dat het kerstfeest aanstaande is
1,
1,premier oui oui mais tu comprends c est naturel c est donc forc ment bon et sain comme les tremblements de terre les ouragans les tsunamis le venin de serpent le virus ebola tout a
1,cold weather and viral infections such as the flu often leads to deterioration with older patients needing more care and support than usual doncasterwinter all part of a campaign in doncasterisgreat to keep well in winter
1,
1,a m before sunrise i m listening to this beautiful composition to offset a cold dreary and snow raining november day and now the annoying headache i woke up with is completely gone jean michel blais dans ma main
1,just in time for flu season and made this video explaining the virus and the work being done to defeat it once and for all
0,rt if you have a cold flu or infection and are finding it hard to breathe yes know that feeling well i would hug you but then im feeling pretty poorly too should we share the germs or isolate what do you think
1,calling out all singers anyone want to help us on a flu related sing song stein grogan really fast timescales though video
0,headaches are sometimes the primary thing patients come to us with or a secondary to something else some types of headache are
